{
  "type": "minecraft:crafting_shaped",
  "pattern": [
    "BHB",
    "ROR",
    "ICI"
  ],
  "key": {
    "C": {
      "item": "minecraft:chest"
    },
    "H": {
      "item": "minecraft:crafting_table"
    },
    "B": {
      "item": "minecraft:netherite_block"
    },
    "I": {
      "item": "minecraft:iron_ingot"
    },
    "R": {
      "item": "minecraft:redstone"
    },
    "O": {
      "item": "minecraft:copper_block"
    }
  },
  "result": {
    "item": "autoworkstations:netherite_auto_crafting_table",
    "count": 1
  }
}
