{
	"credit": "Made with Blockbench",
	"textures": {
		"0": "autoworkstations:block/gold_auto_experience_orb_emitter_side",
		"1": "autoworkstations:block/gold_auto_experience_orb_emitter_bottom",
		"2": "autoworkstations:block/gold_auto_experience_orb_emitter_top_underside",
		"3": "autoworkstations:block/gold_auto_experience_orb_emitter_top",
		"particle": "autoworkstations:block/gold_auto_experience_orb_emitter_bottom"
	},
	"elements": [
		{
			"name": "bottom",
			"from": [0, 0, 0],
			"to": [16, 4, 16],
			"faces": {
				"north": {"uv": [0, 12, 16, 16], "texture": "#0"},
				"east": {"uv": [0, 12, 16, 16], "texture": "#0"},
				"south": {"uv": [0, 12, 16, 16], "texture": "#0"},
				"west": {"uv": [0, 12, 16, 16], "texture": "#0"},
				"up": {"uv": [0, 0, 16, 16], "texture": "#1"},
				"down": {"uv": [0, 0, 16, 16], "texture": "#3"}
			}
		},
		{
			"name": "top",
			"from": [0, 12, 0],
			"to": [16, 16, 16],
			"faces": {
				"north": {"uv": [0, 0, 16, 4], "texture": "#0"},
				"east": {"uv": [0, 0, 16, 4], "texture": "#0"},
				"south": {"uv": [0, 0, 16, 4], "texture": "#0"},
				"west": {"uv": [0, 0, 16, 4], "texture": "#0"},
				"up": {"uv": [0, 0, 16, 16], "texture": "#3"},
				"down": {"uv": [0, 0, 16, 16], "texture": "#2"}
			}
		},
		{
			"name": "corner",
			"from": [0, 4, 0],
			"to": [1, 12, 1],
			"faces": {
				"north": {"uv": [15, 4, 16, 12], "texture": "#0"},
				"east": {"uv": [15, 4, 16, 12], "texture": "#0"},
				"south": {"uv": [0, 4, 1, 12], "texture": "#0"},
				"west": {"uv": [0, 4, 1, 12], "texture": "#0"}
			}
		},
		{
			"name": "corner",
			"from": [0, 4, 15],
			"to": [1, 12, 16],
			"faces": {
				"north": {"uv": [15, 4, 16, 12], "texture": "#0"},
				"east": {"uv": [0, 4, 1, 12], "texture": "#0"},
				"south": {"uv": [0, 4, 1, 12], "texture": "#0"},
				"west": {"uv": [15, 4, 16, 12], "texture": "#0"}
			}
		},
		{
			"name": "corner",
			"from": [15, 4, 15],
			"to": [16, 12, 16],
			"faces": {
				"north": {"uv": [0, 4, 1, 12], "texture": "#0"},
				"east": {"uv": [0, 4, 1, 12], "texture": "#0"},
				"south": {"uv": [15, 4, 16, 12], "texture": "#0"},
				"west": {"uv": [15, 4, 16, 12], "texture": "#0"}
			}
		},
		{
			"name": "corner",
			"from": [15, 4, 0],
			"to": [16, 12, 1],
			"faces": {
				"north": {"uv": [0, 4, 1, 12], "texture": "#0"},
				"east": {"uv": [0, 4, 1, 12], "texture": "#0"},
				"south": {"uv": [15, 4, 16, 12], "texture": "#0"},
				"west": {"uv": [0, 4, 1, 12], "texture": "#0"}
			}
		},
		{
			"from": [5, 6, 5],
			"to": [11, 12, 11],
			"faces": {
				"north": {"uv": [5, 4, 11, 10], "texture": "#0"},
				"east": {"uv": [5, 4, 11, 10], "texture": "#0"},
				"south": {"uv": [5, 4, 11, 10], "texture": "#0"},
				"west": {"uv": [5, 4, 11, 10], "texture": "#0"},
				"up": {"uv": [2, 4, 5, 7], "texture": "#0"},
				"down": {"uv": [2, 4, 5, 7], "texture": "#0"}
			}
		}
	],
	"display": {
		"thirdperson_righthand": {
			"scale": [0.4, 0.4, 0.4]
		},
		"thirdperson_lefthand": {
			"scale": [0.4, 0.4, 0.4]
		},
		"firstperson_righthand": {
			"scale": [0.4, 0.4, 0.4]
		},
		"firstperson_lefthand": {
			"scale": [0.4, 0.4, 0.4]
		},
		"ground": {
			"scale": [0.4, 0.4, 0.4]
		},
		"fixed": {
			"scale": [0.5, 0.5, 0.5]
		}
	}
}
